<svg width="32" height="32" viewBox="0 0 32 32" fill="none" xmlns="http://www.w3.org/2000/svg">
<path d="M16 32C24.8366 32 32 24.8366 32 16C32 7.16344 24.8366 0 16 0C7.16344 0 0 7.16344 0 16C0 24.8366 7.16344 32 16 32Z" fill="url(#paint0_linear_26_355)"/>
<path d="M24.6518 13.1976C24.6518 9.95524 22.0149 7.32166 18.7759 7.32166C15.8346 7.32166 13.3896 9.49535 12.9661 12.3175H9.21755C8.48967 12.3175 7.90076 12.9064 7.90076 13.6343V22.7526C7.90076 23.4805 8.48967 24.0694 9.21755 24.0694H18.3358C19.0637 24.0694 19.6526 23.4805 19.6526 22.7526V19.0073C22.4814 18.5806 24.6518 16.1389 24.6518 13.1976ZM19.6559 17.2174V14.3787C20.0166 14.1107 20.2482 13.6806 20.2482 13.1976C20.2482 12.3837 19.5898 11.7253 18.7759 11.7253C17.962 11.7253 17.3036 12.3837 17.3036 13.1976C17.3036 13.6806 17.5352 14.1107 17.8958 14.3787V22.3093H9.66089V14.0777H12.8966V17.0123C12.536 17.2803 12.3044 17.7104 12.3044 18.1935C12.3044 19.0074 12.9628 19.6657 13.7767 19.6657C14.5906 19.6657 15.249 19.0074 15.249 18.1935C15.249 17.7104 15.0174 17.2803 14.6568 17.0123V13.1976C14.6568 10.9279 16.5029 9.08179 18.7726 9.08179C21.0422 9.08179 22.8884 10.9279 22.8884 13.1976C22.8917 15.1628 21.5021 16.8138 19.6559 17.2174Z" fill="url(#paint1_linear_26_355)"/>
<defs>
<linearGradient id="paint0_linear_26_355" x1="0" y1="32" x2="32" y2="0" gradientUnits="userSpaceOnUse">
<stop stop-color="#00CF91"/>
<stop offset="1" stop-color="#32FFB4"/>
</linearGradient>
<linearGradient id="paint1_linear_26_355" x1="7.90076" y1="24.0694" x2="25.0459" y2="23.6557" gradientUnits="userSpaceOnUse">
<stop stop-color="#0000A3"/>
<stop offset="1" stop-color="#2F2FF2"/>
</linearGradient>
</defs>
</svg>
