<svg width="96" height="96" viewBox="0 0 96 96" fill="none" xmlns="http://www.w3.org/2000/svg">
<path d="M0 48C0 21.4903 21.4903 0 48 0C74.5097 0 96 21.4903 96 48C96 74.5097 74.5097 96 48 96C21.4903 96 0 74.5097 0 48Z" fill="url(#paint0_linear_214_754)"/>
<path d="M56.6529 22.5C48.2293 22.5 41.2298 28.7218 40.003 36.8168H29.2791C27.1979 36.8168 25.5 38.5037 25.5 40.5958V66.7209C25.5 68.8021 27.1869 70.5 29.2791 70.5H55.4042C57.4854 70.5 59.1833 68.8131 59.1833 66.7209V55.997C67.2782 54.7811 73.5 47.7707 73.5 39.3471C73.489 30.0582 65.9309 22.5 56.6529 22.5ZM59.1723 50.8597V42.7319C61.0454 41.3407 61.4288 38.6899 60.0377 36.8277C58.6465 34.9546 55.9957 34.5712 54.1335 35.9623C52.2604 37.3535 51.877 40.0043 53.2681 41.8665C53.5091 42.1951 53.8049 42.4799 54.1335 42.7319V65.4393H30.5497V41.8555H39.8168V50.2572C37.9436 51.6483 37.5602 54.2992 38.9514 56.1613C40.3425 58.0345 42.9934 58.4178 44.8555 57.0267C46.7287 55.6356 47.1121 52.9847 45.7209 51.1225C45.4799 50.7939 45.1842 50.5091 44.8555 50.2572V39.3252C44.8555 32.8186 50.1353 27.5388 56.6419 27.5388C63.1486 27.5388 68.4393 32.8295 68.4393 39.3361C68.4393 44.8788 64.5835 49.6657 59.1723 50.8597Z" fill="url(#paint1_linear_214_754)"/>
<defs>
<linearGradient id="paint0_linear_214_754" x1="-1.78813e-07" y1="95.9999" x2="98.2588" y2="93.6294" gradientUnits="userSpaceOnUse">
<stop stop-color="#0000A3"/>
<stop offset="1" stop-color="#2F2FF2"/>
</linearGradient>
<linearGradient id="paint1_linear_214_754" x1="26.6056" y1="69.3802" x2="68.5479" y2="27.4378" gradientUnits="userSpaceOnUse">
<stop stop-color="#00CF91"/>
<stop offset="1" stop-color="#32FFB4"/>
</linearGradient>
</defs>
</svg>
